Course Notes | Text Mining with R | DataCamp
…
# Load the tidyverse and tidytext packages
library(tidyverse)
library(tidytext)

tidy_twitter <- twitter_data %>% 
  # Tokenize the twitter data
  unnest_tokens(word, tweet_text) 

tidy_twitter %>% 
  # Compute word counts
  count(word) %>% 
  # Arrange the counts in descending order
  arrange(desc(n))
## # A tibble: 18,600 x 2
##    word      n
##    <chr> <int>
##  1 to     2834
##  2 the    2212
##  3 a      1989
##  4 i      1752
##  5 t.co   1405
##  6 http   1361
##  7 for    1356
##  8 you    1345
##  9 on     1289
## 10 and    1153
## #  with 18,590 more rows
…
tidy_twitter <- twitter_data %>% 
  # Tokenize the twitter data
  unnest_tokens(word, tweet_text) %>% 
  # Remove stop words
  anti_join(stop_words)
## Joining, by = "word"

tidy_twitter %>% 
  # Filter to keep complaints only
  filter(complaint_label == "Complaint") %>% 
  # Compute word counts and arrange in descending order
  count(word) %>% 
  arrange(desc(n))
## # A tibble: 3,863 x 2
##    word                n
##    <chr>           <int>
##  1 flight            459
##  2 united            362
##  3 americanair       294
##  4 usairways         207
##  5 time              167
##  6 delta             141
##  7 service           137
##  8 2                 129
##  9 delayed           123
## 10 british_airways   121
## #  with 3,853 more rows
