Course Notes | Text Mining with R | DataCamp
…
Faceting word count plots

Counting by Product

tidy_review %>% 
  count(word, Product) %>% 
  arrange(desc(n))
## # A tibble: 12,719 x 3
##    word     Product                                      n
##    <chr>    <chr>                                    <int>
##  1 clean    iRobot Roomba 880 for Pets and Allergies   815
##  2 vacuum   iRobot Roomba 880 for Pets and Allergies   678
##  3 hair     iRobot Roomba 880 for Pets and Allergies   595
##  4 cleaning iRobot Roomba 880 for Pets and Allergies   560
##  5 880      iRobot Roomba 880 for Pets and Allergies   518
##  6 house    iRobot Roomba 880 for Pets and Allergies   494
##  7 time     iRobot Roomba 880 for Pets and Allergies   494
##  8 floors   iRobot Roomba 880 for Pets and Allergies   405
##  9 love     iRobot Roomba 880 for Pets and Allergies   403
## 10 dust     iRobot Roomba 880 for Pets and Allergies   399
## #  with 12,709 more rows
…
